[
    "1f4f88e64aa9dba3956c418e070747d3.jpg",
    "259492747058285dcee64700a30f548d.jpg",
    "36a25f85dc41367845715dbdcdfb8e28.gif",
    "55b9b90baca8b51fd27d7fd99a2159a4.gif",
    "572bc3656404dcb19126d4b170d57fd2.gif",
    "70a84821dccdef7f263bc20856a3de67.gif",
    "7106e81924e20cc2764783c444f2a748.gif",
    "7347e017172094b3ecbdacc5db711cd7.gif",
    "764b6daea8479599f54531b7a2230287.png",
    "86e574b5a60c3a8ce21558f5327e3c32.jpg",
    "8825b4b4dc64619bcf823b13832257a1.gif",
    "8abe2e75da7c767f54a732eb9dee73dd.jpg",
    "8e7ac662534bf9760e54e72687c631a6.jpg",
    "9db61720e2d3499854404f43f63a579b.jpg",
    "b499f4b166b89be09a0d9d472eb32225.gif",
    "b4d22dbee1555194b219b5b708c7041a.jpg",
    "b948179ef49b506111e0e85a615013c8.jpg",
    "ee04548f350f5fb88b1d12a11a1a699f.png",
    "f174796ed6735ff687de5d516abe3e17.gif",
    "f233e72327239cb84acbc2b93814ac38.jpg",
    "f2e3c42c5be95d17c9874e5079b6e3b0.jpg",
    "fa5d4ea78a92058caa28c5ad778817e5.gif",
    "sample_1c1fa0c4edbbf40548d0fd99c0f57587.jpg",
    "sample_1dbd1b0ebe4f8b896ccc0d6c647ecc3a.jpg",
    "sample_2407c185a40e9891c8661cbe2f819b1a.jpg",
    "sample_242ee7ac97138b2a09fa70a6c689fcad.jpg",
    "sample_25f04eb34cd2467d64540e1c732a4478.jpg",
    "sample_28cd463b23657760090f2fef6de21653.jpg",
    "sample_29954e70e033ef1382fae75d8feb876c.jpg",
    "sample_2f5998d6774684afada7d12680ce168b.jpg",
    "sample_346d48715df5f4d69b59f147f6c05458.jpg",
    "sample_366ccee825be93e30b31132b32dc2aaa.jpg",
    "sample_40cc98b38c5086fcf0fb0152da85d0f3.jpg",
    "sample_46369747dc8b7429dd6035207ac9a823.jpg",
    "sample_468f9f6556bcde481c6175684159a28d.jpg",
    "sample_46b11dd9f716e248bccfa0e7614ce948.jpg",
    "sample_4a38649dbc48517df7e780ed9ba7c75b.jpg",
    "sample_5b2d883cd9eb18720376006e58bdbf0a.jpg",
    "sample_5fcb2e28c5dee922889f5c77636faaf2.jpg",
    "sample_7419d3b44fadc7f61774c250e1763d7c.jpg",
    "sample_7a087dae5550f30df62837c6af56d2b1.jpg",
    "sample_7d3782bb166063b10f66ae3e0e8db87a.jpg",
    "sample_7e7a5884ff29f150bae0f1971097ffd6.jpg",
    "sample_8ed16b9908204c12553a0be3f8a58726.jpg",
    "sample_8fa50f30e1036e8b291f34d0d88f7e04.jpg",
    "sample_9609fdcb7c4f18c413552a1f9e3bbd31.jpg",
    "sample_98728c14f93bbfc9cf3b817f1db0252f.jpg",
    "sample_9bfef09f4429f343c21c22b7259a46b8.jpg",
    "sample_b9e0f6bcb4986e43a91b9243f0f777e6.jpg",
    "sample_c2bf7d3c963758014fbde58785a21b1e.jpg",
    "sample_de1495579282a04e4e6d21096f30f134.jpg",
    "sample_de669c2d9754bb2f78af20d1dce3b23d.jpg",
    "sample_e5282cfa7d613ff10e60a0ae8720d33f.jpg",
    "sample_ec25b74bd39ea176f3dfceab4dd93d27.jpg",
    "sample_ec9c00a24d156c13849a3e0caa0f6d9b.jpg",
    "sample_ed1de6731301d348ad81753789817641.jpg",
    "sample_f0bea70474b6f26b12687eab19c0f313.jpg",
    "sample_fea74563583e65452b091f2af170a24c.jpg"
]